#
# There is insufficient memory for the Java Runtime Environment to continue.
# Native memory allocation (mmap) failed to map 169345024 bytes for committing reserved memory.
# Possible reasons:
#   The system is out of physical RAM or swap space
#   In 32 bit mode, the process size limit was hit
# Possible solutions:
#   Reduce memory load on the system
#   Increase physical memory or swap space
#   Check if swap backing store is full
#   Use 64 bit Java on a 64 bit OS
#   Decrease Java heap size (-Xmx/-Xms)
#   Decrease number of Java threads
#   Decrease Java thread stack sizes (-Xss)
#   Set larger code cache with -XX:ReservedCodeCacheSize=
# This output file may be truncated or incomplete.
#
#  Out of Memory Error (os_linux.cpp:2673), pid=8112, tid=1674099520
#
# JRE version: Java(TM) SE Runtime Environment (8.0_45-b14) (build 1.8.0_45-b14)
# Java VM: Java HotSpot(TM) Server VM (25.45-b02 mixed mode linux-x86 )
# Failed to write core dump. Core dumps have been disabled. To enable core dumping, try "ulimit -c unlimited" before starting Java again
#

---------------  T H R E A D  ---------------

Current thread (0x63b81400):  VMThread [stack: 0x63c0b000,0x63c8c000] [id=8123]

Stack: [0x63c0b000,0x63c8c000],  sp=0x63c8a890,  free space=510k
Native frames: (J=compiled Java code, j=interpreted, Vv=VM code, C=native code)
V  [libjvm.so+0x8c1ecf]  VMError::report_and_die()+0x16f
V  [libjvm.so+0x386495]  report_vm_out_of_memory(char const*, int, unsigned int, VMErrorType, char const*)+0x55
V  [libjvm.so+0x7467a6]  os::Linux::commit_memory_impl(char*, unsigned int, bool)+0xe6
V  [libjvm.so+0x746bc8]  os::pd_commit_memory(char*, unsigned int, unsigned int, bool)+0x28
V  [libjvm.so+0x7402ec]  os::commit_memory(char*, unsigned int, unsigned int, bool)+0x2c
V  [libjvm.so+0x7aa598]  PSVirtualSpace::expand_by(unsigned int)+0x48
V  [libjvm.so+0x79d5a1]  PSOldGen::expand(unsigned int)+0x141
V  [libjvm.so+0x79d66f]  PSOldGen::resize(unsigned int)+0x8f
V  [libjvm.so+0x7a41cc]  PSParallelCompact::invoke_no_policy(bool)+0x8ac
V  [libjvm.so+0x7a8bfd]  PSScavenge::invoke()+0x16d
V  [libjvm.so+0x767d8a]  ParallelScavengeHeap::failed_mem_allocate(unsigned int)+0x5a
V  [libjvm.so+0x8c379a]  VM_ParallelGCFailedAllocation::doit()+0x7a
V  [libjvm.so+0x8cc9b7]  VM_Operation::evaluate()+0x47
V  [libjvm.so+0x8caa93]  VMThread::evaluate_operation(VM_Operation*)+0xb3
V  [libjvm.so+0x8cae30]  VMThread::loop()+0x1b0
V  [libjvm.so+0x8cb295]  VMThread::run()+0x85
V  [libjvm.so+0x749049]  java_start(Thread*)+0x119
C  [libpthread.so.0+0x6d4c]  start_thread+0xcc

VM_Operation (0x62efe5b4): ParallelGCFailedAllocation, mode: safepoint, requested by thread 0x6302e400


---------------  P R O C E S S  ---------------

Java Threads: ( => current thread )
  0x63033400 JavaThread "pool-2-thread-4" [_thread_blocked, id=8136, stack(0x62e0d000,0x62e5e000)]
  0x63032400 JavaThread "pool-2-thread-3" [_thread_blocked, id=8135, stack(0x62e5e000,0x62eaf000)]
  0x6302e400 JavaThread "pool-2-thread-2" [_thread_blocked, id=8134, stack(0x62eaf000,0x62f00000)]
  0x6302c400 JavaThread "pool-3-thread-1" [_thread_blocked, id=8133, stack(0x6321d000,0x6326e000)]
  0x63019c00 JavaThread "pool-2-thread-1" [_thread_blocked, id=8132, stack(0x6326e000,0x632bf000)]
  0x63baa400 JavaThread "Service Thread" daemon [_thread_blocked, id=8130, stack(0x6342c000,0x6347d000)]
  0x63ba7800 JavaThread "C1 CompilerThread2" daemon [_thread_blocked, id=8129, stack(0x6347d000,0x634fe000)]
  0x63ba6000 JavaThread "C2 CompilerThread1" daemon [_thread_blocked, id=8128, stack(0x634fe000,0x6357f000)]
  0x63ba4000 JavaThread "C2 CompilerThread0" daemon [_thread_blocked, id=8127, stack(0x6357f000,0x63600000)]
  0x63ba2800 JavaThread "Signal Dispatcher" daemon [_thread_blocked, id=8126, stack(0x63a0d000,0x63a5e000)]
  0x63b85c00 JavaThread "Finalizer" daemon [_thread_blocked, id=8125, stack(0x63a5e000,0x63aaf000)]
  0x63b84400 JavaThread "Reference Handler" daemon [_thread_blocked, id=8124, stack(0x63aaf000,0x63b00000)]
  0xb6507400 JavaThread "main" [_thread_blocked, id=8114, stack(0xb66e4000,0xb6735000)]

Other Threads:
=>0x63b81400 VMThread [stack: 0x63c0b000,0x63c8c000] [id=8123]
  0x63bac000 WatcherThread [stack: 0x633ab000,0x6342c000] [id=8131]

VM state:at safepoint (normal execution)

VM Mutex/Monitor currently owned by a thread:  ([mutex/lock_event])
[0xb6504818] ExpandHeap_lock - owner thread: 0x63b81400
[0xb6504d60] Threads_lock - owner thread: 0x63b81400
[0xb6505170] Heap_lock - owner thread: 0x6302e400

Heap:
 PSYoungGen      total 232960K, used 92384K [0x91ac0000, 0xa7000000, 0xa7000000)
  eden space 116480K, 0% used [0x91ac0000,0x91ac0000,0x98c80000)
  from space 116480K, 79% used [0x98c80000,0x9e6b81f8,0x9fe40000)
  to   space 116480K, 0% used [0x9fe40000,0x9fe40000,0xa7000000)
 ParOldGen       total 455168K, used 454962K [0x67000000, 0x82c80000, 0x91ac0000)
  object space 455168K, 99% used [0x67000000,0x82c4ca70,0x82c80000)
 Metaspace       used 4151K, capacity 4166K, committed 4248K, reserved 4400K

Card table byte_map: [0x66dff000,0x67000000] byte_map_base: 0x66ac7000

Marking Bits: (ParMarkBitMap*) 0xb7151960
 Begin Bits: [0x64700000, 0x65700000)
 End Bits:   [0x65700000, 0x66700000)

Polling page: 0xb7749000

CodeCache: size=245760Kb used=9616Kb max_used=10549Kb free=236143Kb
 bounds [0xa7500000, 0xa7fb8000, 0xb6500000]
 total_blobs=2439 nmethods=2278 adapters=75
 compilation: enabled

Compilation events (10 events):
Event: 15.567 Thread 0x63ba6000 nmethod 2902 0xa7979588 code [0xa79796e0, 0xa7979ef0]
Event: 15.572 Thread 0x63ba4000 nmethod 2904 0xa7aabc48 code [0xa7aabec0, 0xa7aacb6c]
Event: 15.572 Thread 0x63ba6000 2908   !   4       com.android.dx.cf.code.BytecodeArray::parseInstruction (2764 bytes)
Event: 15.573 Thread 0x63ba4000 2909       4       com.android.dx.rop.code.Rops::ropFor (771 bytes)
Event: 15.622 Thread 0x63ba7800 2911       3       com.android.dx.rop.code.BasicBlockList$RegCountVisitor::visitThrowingCstInsn (6 bytes)
Event: 15.622 Thread 0x63ba7800 nmethod 2911 0xa7624dc8 code [0xa7624ee0, 0xa7624fcc]
Event: 15.623 Thread 0x63ba7800 2913       3       com.android.dx.rop.code.BasicBlockList$RegCountVisitor::visitPlainCstInsn (6 bytes)
Event: 15.624 Thread 0x63ba7800 nmethod 2913 0xa775cfc8 code [0xa775d0e0, 0xa775d1cc]
Event: 15.662 Thread 0x63ba7800 2914       3       com.android.dx.rop.code.PlainCstInsn::accept (8 bytes)
Event: 15.662 Thread 0x63ba7800 nmethod 2914 0xa77b9a88 code [0xa77b9ba0, 0xa77b9d0c]

GC Heap History (10 events):
Event: 13.976 GC heap after
Heap after GC invocations=26 (full 5):
 PSYoungGen      total 228608K, used 55621K [0x91ac0000, 0xa6d40000, 0xa7000000)
  eden space 116480K, 0% used [0x91ac0000,0x91ac0000,0x98c80000)
  from space 112128K, 49% used [0x98c80000,0x9c2d1410,0x9fa00000)
  to   space 108544K, 0% used [0xa0340000,0xa0340000,0xa6d40000)
 ParOldGen       total 455168K, used 369888K [0x67000000, 0x82c80000, 0x91ac0000)
  object space 455168K, 81% used [0x67000000,0x7d938120,0x82c80000)
 Metaspace       used 4147K, capacity 4166K, committed 4248K, reserved 4400K
}
Event: 14.301 GC heap before
{Heap before GC invocations=27 (full 5):
 PSYoungGen      total 228608K, used 172101K [0x91ac0000, 0xa6d40000, 0xa7000000)
  eden space 116480K, 100% used [0x91ac0000,0x98c80000,0x98c80000)
  from space 112128K, 49% used [0x98c80000,0x9c2d1410,0x9fa00000)
  to   space 108544K, 0% used [0xa0340000,0xa0340000,0xa6d40000)
 ParOldGen       total 455168K, used 369888K [0x67000000, 0x82c80000, 0x91ac0000)
  object space 455168K, 81% used [0x67000000,0x7d938120,0x82c80000)
 Metaspace       used 4149K, capacity 4166K, committed 4248K, reserved 4400K
Event: 14.368 GC heap after
Heap after GC invocations=27 (full 5):
 PSYoungGen      total 234752K, used 72836K [0x91ac0000, 0xa7000000, 0xa7000000)
  eden space 126208K, 0% used [0x91ac0000,0x91ac0000,0x99600000)
  from space 108544K, 67% used [0xa0340000,0xa4a61240,0xa6d40000)
  to   space 111616K, 0% used [0x99600000,0x99600000,0xa0300000)
 ParOldGen       total 455168K, used 369888K [0x67000000, 0x82c80000, 0x91ac0000)
  object space 455168K, 81% used [0x67000000,0x7d938120,0x82c80000)
 Metaspace       used 4149K, capacity 4166K, committed 4248K, reserved 4400K
}
Event: 14.618 GC heap before
{Heap before GC invocations=28 (full 5):
 PSYoungGen      total 234752K, used 199044K [0x91ac0000, 0xa7000000, 0xa7000000)
  eden space 126208K, 100% used [0x91ac0000,0x99600000,0x99600000)
  from space 108544K, 67% used [0xa0340000,0xa4a61240,0xa6d40000)
  to   space 111616K, 0% used [0x99600000,0x99600000,0xa0300000)
 ParOldGen       total 455168K, used 369888K [0x67000000, 0x82c80000, 0x91ac0000)
  object space 455168K, 81% used [0x67000000,0x7d938120,0x82c80000)
 Metaspace       used 4149K, capacity 4166K, committed 4248K, reserved 4400K
Event: 14.723 GC heap after
Heap after GC invocations=28 (full 5):
 PSYoungGen      total 216064K, used 89781K [0x91ac0000, 0xa7000000, 0xa7000000)
  eden space 126208K, 0% used [0x91ac0000,0x91ac0000,0x99600000)
  from space 89856K, 99% used [0x99600000,0x9edad600,0x9edc0000)
  to   space 116480K, 0% used [0x9fe40000,0x9fe40000,0xa7000000)
 ParOldGen       total 455168K, used 369888K [0x67000000, 0x82c80000, 0x91ac0000)
  object space 455168K, 81% used [0x67000000,0x7d938120,0x82c80000)
 Metaspace       used 4149K, capacity 4166K, committed 4248K, reserved 4400K
}
Event: 15.039 GC heap before
{Heap before GC invocations=29 (full 5):
 PSYoungGen      total 216064K, used 215989K [0x91ac0000, 0xa7000000, 0xa7000000)
  eden space 126208K, 100% used [0x91ac0000,0x99600000,0x99600000)
  from space 89856K, 99% used [0x99600000,0x9edad600,0x9edc0000)
  to   space 116480K, 0% used [0x9fe40000,0x9fe40000,0xa7000000)
 ParOldGen       total 455168K, used 369888K [0x67000000, 0x82c80000, 0x91ac0000)
  object space 455168K, 81% used [0x67000000,0x7d938120,0x82c80000)
 Metaspace       used 4150K, capacity 4166K, committed 4248K, reserved 4400K
Event: 15.203 GC heap after
Heap after GC invocations=29 (full 5):
 PSYoungGen      total 232960K, used 77401K [0x91ac0000, 0xa7000000, 0xa7000000)
  eden space 116480K, 0% used [0x91ac0000,0x91ac0000,0x98c80000)
  from space 116480K, 66% used [0x9fe40000,0xa49d67c0,0xa7000000)
  to   space 116480K, 0% used [0x98c80000,0x98c80000,0x9fe40000)
 ParOldGen       total 455168K, used 406842K [0x67000000, 0x82c80000, 0x91ac0000)
  object space 455168K, 89% used [0x67000000,0x7fd4e938,0x82c80000)
 Metaspace       used 4150K, capacity 4166K, committed 4248K, reserved 4400K
}
Event: 15.696 GC heap before
{Heap before GC invocations=30 (full 5):
 PSYoungGen      total 232960K, used 193881K [0x91ac0000, 0xa7000000, 0xa7000000)
  eden space 116480K, 100% used [0x91ac0000,0x98c80000,0x98c80000)
  from space 116480K, 66% used [0x9fe40000,0xa49d67c0,0xa7000000)
  to   space 116480K, 0% used [0x98c80000,0x98c80000,0x9fe40000)
 ParOldGen       total 455168K, used 406842K [0x67000000, 0x82c80000, 0x91ac0000)
  object space 455168K, 89% used [0x67000000,0x7fd4e938,0x82c80000)
 Metaspace       used 4151K, capacity 4166K, committed 4248K, reserved 4400K
Event: 15.794 GC heap after
Heap after GC invocations=30 (full 5):
 PSYoungGen      total 232960K, used 114485K [0x91ac0000, 0xa7000000, 0xa7000000)
  eden space 116480K, 0% used [0x91ac0000,0x91ac0000,0x98c80000)
  from space 116480K, 98% used [0x98c80000,0x9fc4d638,0x9fe40000)
  to   space 116480K, 0% used [0x9fe40000,0x9fe40000,0xa7000000)
 ParOldGen       total 455168K, used 442006K [0x67000000, 0x82c80000, 0x91ac0000)
  object space 455168K, 97% used [0x67000000,0x81fa58c0,0x82c80000)
 Metaspace       used 4151K, capacity 4166K, committed 4248K, reserved 4400K
}
Event: 15.794 GC heap before
{Heap before GC invocations=31 (full 6):
 PSYoungGen      total 232960K, used 114485K [0x91ac0000, 0xa7000000, 0xa7000000)
  eden space 116480K, 0% used [0x91ac0000,0x91ac0000,0x98c80000)
  from space 116480K, 98% used [0x98c80000,0x9fc4d638,0x9fe40000)
  to   space 116480K, 0% used [0x9fe40000,0x9fe40000,0xa7000000)
 ParOldGen       total 455168K, used 442006K [0x67000000, 0x82c80000, 0x91ac0000)
  object space 455168K, 97% used [0x67000000,0x81fa58c0,0x82c80000)
 Metaspace       used 4151K, capacity 4166K, committed 4248K, reserved 4400K

Deoptimization events (10 events):
Event: 10.944 Thread 0x63033400 Uncommon trap: reason=class_check action=maybe_recompile pc=0xa7f096f0 method=com.android.dx.cf.code.Ropper.processBlock(Lcom/android/dx/cf/code/ByteBlock;Lcom/android/dx/cf/code/Frame;[I)V @ 777
Event: 10.952 Thread 0x63019c00 Uncommon trap: reason=unstable_if action=reinterpret pc=0xa75d8f38 method=com.android.dx.ssa.SCCP.simulateStmt(Lcom/android/dx/ssa/SsaInsn;)V @ 53
Event: 11.002 Thread 0x63019c00 Uncommon trap: reason=unstable_if action=reinterpret pc=0xa7f23f64 method=com.android.dx.ssa.LiteralOpUpgrader$1.visitNonMoveInsn(Lcom/android/dx/ssa/NormalSsaInsn;)V @ 55
Event: 11.091 Thread 0xb6507400 Uncommon trap: reason=unstable_if action=reinterpret pc=0xa7f07908 method=com.android.dx.cf.code.ExecutionStack.<init>(I)V @ 2
Event: 11.186 Thread 0x63019c00 Uncommon trap: reason=class_check action=maybe_recompile pc=0xa7e5d438 method=com.android.dx.cf.code.RopperMachine.run(Lcom/android/dx/cf/code/Frame;II)V @ 1024
Event: 13.246 Thread 0xb6507400 Uncommon trap: reason=unstable_if action=reinterpret pc=0xa7eed708 method=com.android.dx.cf.direct.StdAttributeFactory.parse0(Lcom/android/dx/cf/direct/DirectClassFile;ILjava/lang/String;IILcom/android/dx/cf/iface/ParseObserver;)Lcom/android/dx/cf/iface/A
Event: 13.649 Thread 0x63033400 Uncommon trap: reason=null_check action=make_not_entrant pc=0xa787302c method=com.android.dx.dex.file.MethodIdsSection.intern(Lcom/android/dx/rop/cst/CstBaseMethodRef;)Lcom/android/dx/dex/file/MethodIdItem; @ 26
Event: 13.692 Thread 0x63019c00 Uncommon trap: reason=null_check action=make_not_entrant pc=0xa7dae780 method=com.android.dx.dex.file.MethodIdsSection.intern(Lcom/android/dx/rop/cst/CstBaseMethodRef;)Lcom/android/dx/dex/file/MethodIdItem; @ 26
Event: 14.074 Thread 0x63019c00 Uncommon trap: reason=unstable_if action=reinterpret pc=0xa7cbdd50 method=com.android.dx.cf.code.Ropper.processBlock(Lcom/android/dx/cf/code/ByteBlock;Lcom/android/dx/cf/code/Frame;[I)V @ 651
Event: 14.505 Thread 0xb6507400 Uncommon trap: reason=unstable_if action=reinterpret pc=0xa7a83fa4 method=com.android.dx.cf.code.Merger.mergeType(Lcom/android/dx/rop/type/TypeBearer;Lcom/android/dx/rop/type/TypeBearer;)Lcom/android/dx/rop/type/TypeBearer; @ 84

Internal exceptions (6 events):
Event: 0.085 Thread 0xb6507400 Exception <a 'java/lang/NoSuchMethodError': Method sun.misc.Unsafe.defineClass(Ljava/lang/String;[BII)Ljava/lang/Class; name or signature does not match> (0x91ad03f8) thrown at [/HUDSON/workspace/8-2-build-linux-i586/jdk8u45/3457/hotspot/src/share/vm/prim
Event: 0.085 Thread 0xb6507400 Exception <a 'java/lang/NoSuchMethodError': Method sun.misc.Unsafe.prefetchRead(Ljava/lang/Object;J)V name or signature does not match> (0x91ad0678) thrown at [/HUDSON/workspace/8-2-build-linux-i586/jdk8u45/3457/hotspot/src/share/vm/prims/jni.cpp, line 39
Event: 1.462 Thread 0x6302e400 Implicit null exception at 0xa7723b14 to 0xa7725b5d
Event: 2.000 Thread 0x63019c00 Exception <a 'java/lang/ArrayIndexOutOfBoundsException': 18> (0x93e0cfc0) thrown at [/HUDSON/workspace/8-2-build-linux-i586/jdk8u45/3457/hotspot/src/share/vm/interpreter/interpreterRuntime.cpp, line 366]
Event: 2.000 Thread 0x63019c00 Exception <a 'java/lang/ArrayIndexOutOfBoundsException': 145> (0x93e0e7c0) thrown at [/HUDSON/workspace/8-2-build-linux-i586/jdk8u45/3457/hotspot/src/share/vm/interpreter/interpreterRuntime.cpp, line 366]
Event: 2.001 Thread 0x63019c00 Exception <a 'java/lang/ArrayIndexOutOfBoundsException'> (0x93e0f800) thrown at [/HUDSON/workspace/8-2-build-linux-i586/jdk8u45/3457/hotspot/src/share/vm/runtime/sharedRuntime.cpp, line 605]

Events (10 events):
Event: 14.388 Thread 0x6302e400 DEOPT PACKING pc=0xa7bf877c sp=0x62efe6e0
Event: 14.388 Thread 0x6302e400 DEOPT UNPACKING pc=0xa753c590 sp=0x62efe610 mode 0
Event: 14.505 Thread 0xb6507400 Uncommon trap: trap_request=0xffffff65 fr.pc=0xa7a83fa4
Event: 14.505 Thread 0xb6507400 DEOPT PACKING pc=0xa7a83fa4 sp=0xb67333b0
Event: 14.505 Thread 0xb6507400 DEOPT UNPACKING pc=0xa753ae55 sp=0xb6733378 mode 2
Event: 14.618 Executing VM operation: ParallelGCFailedAllocation
Event: 14.731 Executing VM operation: ParallelGCFailedAllocation done
Event: 15.038 Executing VM operation: ParallelGCFailedAllocation
Event: 15.203 Executing VM operation: ParallelGCFailedAllocation done
Event: 15.695 Executing VM operation: ParallelGCFailedAllocation


Dynamic libraries:
08048000-08049000 r-xp 00000000 08:01 657279     /soft/jdk1.8.0_45/bin/java
08049000-0804a000 rw-p 00000000 08:01 657279     /soft/jdk1.8.0_45/bin/java
082f9000-08398000 rw-p 00000000 00:00 0          [heap]
60200000-602fb000 rw-p 00000000 00:00 0 
602fb000-60300000 ---p 00000000 00:00 0 
60400000-604fb000 rw-p 00000000 00:00 0 
604fb000-60500000 ---p 00000000 00:00 0 
60600000-606c2000 rw-p 00000000 00:00 0 
606c2000-60700000 ---p 00000000 00:00 0 
60800000-608fb000 rw-p 00000000 00:00 0 
608fb000-60900000 ---p 00000000 00:00 0 
60a00000-60ab3000 rw-p 00000000 00:00 0 
60ab3000-60b00000 ---p 00000000 00:00 0 
60b00000-60bbe000 rw-p 00000000 00:00 0 
60bbe000-60c00000 ---p 00000000 00:00 0 
60d00000-60df1000 rw-p 00000000 00:00 0 
60df1000-60e00000 ---p 00000000 00:00 0 
60e00000-60ef9000 rw-p 00000000 00:00 0 
60ef9000-60f00000 ---p 00000000 00:00 0 
60f00000-61000000 rw-p 00000000 00:00 0 
61100000-611d4000 rw-p 00000000 00:00 0 
611d4000-61200000 ---p 00000000 00:00 0 
61300000-613f9000 rw-p 00000000 00:00 0 
613f9000-61400000 ---p 00000000 00:00 0 
61400000-614fb000 rw-p 00000000 00:00 0 
614fb000-61500000 ---p 00000000 00:00 0 
61500000-61700000 rw-p 00000000 00:00 0 
61700000-617fa000 rw-p 00000000 00:00 0 
617fa000-61800000 ---p 00000000 00:00 0 
61800000-619fe000 rw-p 00000000 00:00 0 
619fe000-61a00000 ---p 00000000 00:00 0 
61a00000-61add000 rw-p 00000000 00:00 0 
61add000-61b00000 ---p 00000000 00:00 0 
61c00000-61cff000 rw-p 00000000 00:00 0 
61cff000-61d00000 ---p 00000000 00:00 0 
61e00000-61efd000 rw-p 00000000 00:00 0 
61efd000-61f00000 ---p 00000000 00:00 0 
62000000-620fd000 rw-p 00000000 00:00 0 
620fd000-62100000 ---p 00000000 00:00 0 
62100000-621f9000 rw-p 00000000 00:00 0 
621f9000-62200000 ---p 00000000 00:00 0 
62200000-622ff000 rw-p 00000000 00:00 0 
622ff000-62300000 ---p 00000000 00:00 0 
62300000-623f3000 rw-p 00000000 00:00 0 
623f3000-62400000 ---p 00000000 00:00 0 
62400000-624fa000 rw-p 00000000 00:00 0 
624fa000-62500000 ---p 00000000 00:00 0 
62600000-626f9000 rw-p 00000000 00:00 0 
626f9000-62700000 ---p 00000000 00:00 0 
62800000-628fb000 rw-p 00000000 00:00 0 
628fb000-62900000 ---p 00000000 00:00 0 
62900000-629ff000 rw-p 00000000 00:00 0 
629ff000-62a00000 ---p 00000000 00:00 0 
62b00000-62bff000 rw-p 00000000 00:00 0 
62bff000-62c00000 ---p 00000000 00:00 0 
62c00000-62cf2000 rw-p 00000000 00:00 0 
62cf2000-62d00000 ---p 00000000 00:00 0 
62d00000-62dff000 rw-p 00000000 00:00 0 
62dff000-62e00000 ---p 00000000 00:00 0 
62e0d000-62e10000 ---p 00000000 00:00 0 
62e10000-62e5e000 rw-p 00000000 00:00 0          [stack:8136]
62e5e000-62e61000 ---p 00000000 00:00 0 
62e61000-62eaf000 rw-p 00000000 00:00 0          [stack:8135]
62eaf000-62eb2000 ---p 00000000 00:00 0 
62eb2000-62f00000 rw-p 00000000 00:00 0          [stack:8134]
62f00000-62ffd000 rw-p 00000000 00:00 0 
62ffd000-63000000 ---p 00000000 00:00 0 
63000000-63100000 rw-p 00000000 00:00 0 
63100000-63200000 rw-p 00000000 00:00 0 
6321d000-63220000 ---p 00000000 00:00 0 
63220000-6326e000 rw-p 00000000 00:00 0          [stack:8133]
6326e000-63271000 ---p 00000000 00:00 0 
63271000-632bf000 rw-p 00000000 00:00 0          [stack:8132]
632bf000-633ab000 r--s 00b07000 08:01 3670174    /home/administrator/StudioProjects/JournyApp/app/build/intermediates/multi-dex/debug/allclasses.jar
633ab000-633ac000 ---p 00000000 00:00 0 
633ac000-6342c000 rw-p 00000000 00:00 0          [stack:8131]
6342c000-6342f000 ---p 00000000 00:00 0 
6342f000-6347d000 rw-p 00000000 00:00 0          [stack:8130]
6347d000-63480000 ---p 00000000 00:00 0 
63480000-634fe000 rw-p 00000000 00:00 0          [stack:8129]
634fe000-63501000 ---p 00000000 00:00 0 
63501000-6357f000 rw-p 00000000 00:00 0          [stack:8128]
6357f000-63582000 ---p 00000000 00:00 0 
63582000-63600000 rw-p 00000000 00:00 0          [stack:8127]
63600000-63800000 r--p 00000000 08:01 6560783    /usr/lib/locale/locale-archive
63800000-63837000 rw-p 00000000 00:00 0 
63837000-63900000 ---p 00000000 00:00 0 
63900000-639fc000 rw-p 00000000 00:00 0 
639fc000-63a00000 ---p 00000000 00:00 0 
63a0d000-63a10000 ---p 00000000 00:00 0 
63a10000-63a5e000 rw-p 00000000 00:00 0          [stack:8126]
63a5e000-63a61000 ---p 00000000 00:00 0 
63a61000-63aaf000 rw-p 00000000 00:00 0          [stack:8125]
63aaf000-63ab2000 ---p 00000000 00:00 0 
63ab2000-63b00000 rw-p 00000000 00:00 0          [stack:8124]
63b00000-63bf9000 rw-p 00000000 00:00 0 
63bf9000-63c00000 ---p 00000000 00:00 0 
63c0b000-63c0c000 ---p 00000000 00:00 0 
63c0c000-63cdb000 rw-p 00000000 00:00 0          [stack:8123]
63cdb000-63eb4000 r--s 03d09000 08:01 657622     /soft/jdk1.8.0_45/jre/lib/rt.jar
63eb4000-642da000 rw-p 00000000 00:00 0 
642da000-64300000 ---p 00000000 00:00 0 
64300000-66700000 rw-p 00000000 00:00 0 
66700000-667f9000 rw-p 00000000 00:00 0 
667f9000-66800000 ---p 00000000 00:00 0 
66824000-6687f000 rw-p 00000000 00:00 0 
6687f000-66880000 ---p 00000000 00:00 0 
66880000-66900000 rw-p 00000000 00:00 0          [stack:8122]
66900000-66921000 rw-p 00000000 00:00 0 
66921000-66a00000 ---p 00000000 00:00 0 
66a00000-66afe000 rw-p 00000000 00:00 0 
66afe000-66b00000 ---p 00000000 00:00 0 
66b00000-66b21000 rw-p 00000000 00:00 0 
66b21000-66c00000 ---p 00000000 00:00 0 
66c28000-66c29000 ---p 00000000 00:00 0 
66c29000-66d88000 rw-p 00000000 00:00 0          [stack:8121]
66d88000-66dff000 ---p 00000000 00:00 0 
66dff000-66ede000 rw-p 00000000 00:00 0 
66ede000-66f54000 ---p 00000000 00:00 0 
66f54000-66fff000 rw-p 00000000 00:00 0 
66fff000-82c80000 rw-p 00000000 00:00 0 
8cc66000-8ce00000 rw-p 00000000 00:00 0 
8ce00000-91ac0000 ---p 00000000 00:00 0 
91ac0000-a7000000 rw-p 00000000 00:00 0 
a703e000-a703f000 ---p 00000000 00:00 0 
a703f000-a70bf000 rw-p 00000000 00:00 0          [stack:8119]
a70bf000-a70c0000 ---p 00000000 00:00 0 
a70c0000-a716b000 rw-p 00000000 00:00 0          [stack:8116]
a716b000-a7500000 ---p 00000000 00:00 0 
a7500000-a7fb8000 rwxp 00000000 00:00 0 
a7fb8000-b6500000 ---p 00000000 00:00 0 
b6500000-b65fb000 rw-p 00000000 00:00 0 
b65fb000-b6600000 ---p 00000000 00:00 0 
b6629000-b6638000 r--s 000df000 08:01 3539265    /soft/android-sdk-linux/build-tools/23.0.1/lib/dx.jar
b6638000-b6650000 rw-p 00000000 00:00 0 
b6650000-b6669000 r-xp 00000000 08:01 657576     /soft/jdk1.8.0_45/jre/lib/i386/libzip.so
b6669000-b666a000 rw-p 00018000 08:01 657576     /soft/jdk1.8.0_45/jre/lib/i386/libzip.so
b666a000-b6675000 r-xp 00000000 08:01 4719643    /lib/i386-linux-gnu/libnss_files-2.15.so
b6675000-b6676000 r--p 0000a000 08:01 4719643    /lib/i386-linux-gnu/libnss_files-2.15.so
b6676000-b6677000 rw-p 0000b000 08:01 4719643    /lib/i386-linux-gnu/libnss_files-2.15.so
b6677000-b6681000 r-xp 00000000 08:01 4719647    /lib/i386-linux-gnu/libnss_nis-2.15.so
b6681000-b6682000 r--p 00009000 08:01 4719647    /lib/i386-linux-gnu/libnss_nis-2.15.so
b6682000-b6683000 rw-p 0000a000 08:01 4719647    /lib/i386-linux-gnu/libnss_nis-2.15.so
b6683000-b6699000 r-xp 00000000 08:01 4719637    /lib/i386-linux-gnu/libnsl-2.15.so
b6699000-b669a000 r--p 00015000 08:01 4719637    /lib/i386-linux-gnu/libnsl-2.15.so
b669a000-b669b000 rw-p 00016000 08:01 4719637    /lib/i386-linux-gnu/libnsl-2.15.so
b669b000-b669d000 rw-p 00000000 00:00 0 
b669d000-b66a4000 r-xp 00000000 08:01 4719639    /lib/i386-linux-gnu/libnss_compat-2.15.so
b66a4000-b66a5000 r--p 00006000 08:01 4719639    /lib/i386-linux-gnu/libnss_compat-2.15.so
b66a5000-b66a6000 rw-p 00007000 08:01 4719639    /lib/i386-linux-gnu/libnss_compat-2.15.so
b66ad000-b66ae000 rw-p 00000000 00:00 0 
b66ae000-b66b6000 rw-s 00000000 08:01 16257219   /tmp/hsperfdata_administrator/8112
b66b6000-b66da000 r-xp 00000000 08:01 657571     /soft/jdk1.8.0_45/jre/lib/i386/libjava.so
b66da000-b66db000 rw-p 00023000 08:01 657571     /soft/jdk1.8.0_45/jre/lib/i386/libjava.so
b66db000-b66e2000 r-xp 00000000 08:01 4719678    /lib/i386-linux-gnu/librt-2.15.so
b66e2000-b66e3000 r--p 00006000 08:01 4719678    /lib/i386-linux-gnu/librt-2.15.so
b66e3000-b66e4000 rw-p 00007000 08:01 4719678    /lib/i386-linux-gnu/librt-2.15.so
b66e4000-b66e7000 ---p 00000000 00:00 0 
b66e7000-b6735000 rw-p 00000000 00:00 0          [stack:8114]
b6735000-b675f000 r-xp 00000000 08:01 4719624    /lib/i386-linux-gnu/libm-2.15.so
b675f000-b6760000 r--p 00029000 08:01 4719624    /lib/i386-linux-gnu/libm-2.15.so
b6760000-b6761000 rw-p 0002a000 08:01 4719624    /lib/i386-linux-gnu/libm-2.15.so
b6761000-b70d4000 r-xp 00000000 08:01 657556     /soft/jdk1.8.0_45/jre/lib/i386/server/libjvm.so
b70d4000-b7140000 rw-p 00972000 08:01 657556     /soft/jdk1.8.0_45/jre/lib/i386/server/libjvm.so
b7140000-b7566000 rw-p 00000000 00:00 0 
b7566000-b770a000 r-xp 00000000 08:01 4719592    /lib/i386-linux-gnu/libc-2.15.so
b770a000-b770c000 r--p 001a4000 08:01 4719592    /lib/i386-linux-gnu/libc-2.15.so
b770c000-b770d000 rw-p 001a6000 08:01 4719592    /lib/i386-linux-gnu/libc-2.15.so
b770d000-b7710000 rw-p 00000000 00:00 0 
b7710000-b7713000 r-xp 00000000 08:01 4719605    /lib/i386-linux-gnu/libdl-2.15.so
b7713000-b7714000 r--p 00002000 08:01 4719605    /lib/i386-linux-gnu/libdl-2.15.so
b7714000-b7715000 rw-p 00003000 08:01 4719605    /lib/i386-linux-gnu/libdl-2.15.so
b7715000-b7729000 r-xp 00000000 08:01 655961     /soft/jdk1.8.0_45/lib/i386/jli/libjli.so
b7729000-b772a000 rw-p 00014000 08:01 655961     /soft/jdk1.8.0_45/lib/i386/jli/libjli.so
b772a000-b772b000 rw-p 00000000 00:00 0 
b772b000-b7742000 r-xp 00000000 08:01 4719672    /lib/i386-linux-gnu/libpthread-2.15.so
b7742000-b7743000 r--p 00016000 08:01 4719672    /lib/i386-linux-gnu/libpthread-2.15.so
b7743000-b7744000 rw-p 00017000 08:01 4719672    /lib/i386-linux-gnu/libpthread-2.15.so
b7744000-b7747000 rw-p 00000000 00:00 0 
b7747000-b7748000 r--p 005db000 08:01 6560783    /usr/lib/locale/locale-archive
b7748000-b7749000 rw-p 00000000 00:00 0 
b7749000-b774a000 ---p 00000000 00:00 0 
b774a000-b7755000 r-xp 00000000 08:01 657522     /soft/jdk1.8.0_45/jre/lib/i386/libverify.so
b7755000-b7756000 rw-p 0000b000 08:01 657522     /soft/jdk1.8.0_45/jre/lib/i386/libverify.so
b7756000-b7758000 rw-p 00000000 00:00 0 
b7758000-b7759000 r-xp 00000000 00:00 0          [vdso]
b7759000-b7779000 r-xp 00000000 08:01 4719572    /lib/i386-linux-gnu/ld-2.15.so
b7779000-b777a000 r--p 0001f000 08:01 4719572    /lib/i386-linux-gnu/ld-2.15.so
b777a000-b777b000 rw-p 00020000 08:01 4719572    /lib/i386-linux-gnu/ld-2.15.so
bfd78000-bfd79000 rwxp 00000000 00:00 0 
bfdab000-bfdcc000 rw-p 00000000 00:00 0          [stack]

VM Arguments:
jvm_args: -Xmx1024M -Dfile.encoding=UTF-8 -Duser.country=IN -Duser.language=en -Duser.variant 
java_command: com.android.dx.command.Main --dex --num-threads=4 --multi-dex --main-dex-list /home/administrator/StudioProjects/JournyApp/app/build/intermediates/multi-dex/debug/maindexlist.txt --output /home/administrator/StudioProjects/JournyApp/app/build/intermediates/dex/debug /home/administrator/StudioProjects/JournyApp/app/build/intermediates/multi-dex/debug/allclasses.jar
java_class_path (initial): /soft/android-sdk-linux/build-tools/23.0.1/lib/dx.jar
Launcher Type: SUN_STANDARD

Environment Variables:
JAVA_HOME=/soft/jdk1.8.0_45
PATH=/usr/lib/lightdm/lightdm:/usr/local/sbin:/usr/local/bin:/usr/sbin:/usr/bin:/sbin:/bin:/usr/games:.:/soft/jdk1.8.0_45/bin
LD_LIBRARY_PATH=/soft/android-studio/bin:
SHELL=/bin/bash
DISPLAY=:0.0

Signal Handlers:
SIGSEGV: [libjvm.so+0x8c29a0], sa_mask[0]=11111111011111111101111111111110, sa_flags=SA_RESTART|SA_SIGINFO
SIGBUS: [libjvm.so+0x8c29a0], sa_mask[0]=11111111011111111101111111111110, sa_flags=SA_RESTART|SA_SIGINFO
SIGFPE: [libjvm.so+0x7432d0], sa_mask[0]=11111111011111111101111111111110, sa_flags=SA_RESTART|SA_SIGINFO
SIGPIPE: [libjvm.so+0x7432d0], sa_mask[0]=11111111011111111101111111111110, sa_flags=SA_RESTART|SA_SIGINFO
SIGXFSZ: [libjvm.so+0x7432d0], sa_mask[0]=11111111011111111101111111111110, sa_flags=SA_RESTART|SA_SIGINFO
SIGILL: [libjvm.so+0x7432d0], sa_mask[0]=11111111011111111101111111111110, sa_flags=SA_RESTART|SA_SIGINFO
SIGUSR1: SIG_DFL, sa_mask[0]=00000000000000000000000000000000, sa_flags=none
SIGUSR2: [libjvm.so+0x744860], sa_mask[0]=00100000000000000000000000000000, sa_flags=SA_RESTART|SA_SIGINFO
SIGHUP: [libjvm.so+0x745d10], sa_mask[0]=11111111011111111101111111111110, sa_flags=SA_RESTART|SA_SIGINFO
SIGINT: [libjvm.so+0x745d10], sa_mask[0]=11111111011111111101111111111110, sa_flags=SA_RESTART|SA_SIGINFO
SIGTERM: [libjvm.so+0x745d10], sa_mask[0]=11111111011111111101111111111110, sa_flags=SA_RESTART|SA_SIGINFO
SIGQUIT: [libjvm.so+0x745d10], sa_mask[0]=11111111011111111101111111111110, sa_flags=SA_RESTART|SA_SIGINFO


---------------  S Y S T E M  ---------------

OS:DISTRIB_ID=Ubuntu
DISTRIB_RELEASE=12.04
DISTRIB_CODENAME=precise
DISTRIB_DESCRIPTION="Ubuntu 12.04.4 LTS"

uname:Linux 3.11.0-15-generic #25~precise1-Ubuntu SMP Thu Jan 30 17:42:40 UTC 2014 i686
libc:glibc 2.15 NPTL 2.15 
rlimit: STACK 8192k, CORE 0k, NPROC 29407, NOFILE 4096, AS infinity
load average:4.40 2.27 1.49

/proc/meminfo:
MemTotal:        3781856 kB
MemFree:          276552 kB
Buffers:            5712 kB
Cached:           449984 kB
SwapCached:            0 kB
Active:          3020152 kB
Inactive:         398636 kB
Active(anon):    2965812 kB
Inactive(anon):   347112 kB
Active(file):      54340 kB
Inactive(file):    51524 kB
Unevictable:          72 kB
Mlocked:              72 kB
HighTotal:       2927676 kB
HighFree:          98748 kB
LowTotal:         854180 kB
LowFree:          177804 kB
SwapTotal:             0 kB
SwapFree:              0 kB
Dirty:                24 kB
Writeback:             0 kB
AnonPages:       2963784 kB
Mapped:           137428 kB
Shmem:            349424 kB
Slab:              44072 kB
SReclaimable:      25080 kB
SUnreclaim:        18992 kB
KernelStack:        4032 kB
PageTables:        13008 kB
NFS_Unstable:          0 kB
Bounce:                0 kB
WritebackTmp:          0 kB
CommitLimit:     1890928 kB
Committed_AS:    5497028 kB
VmallocTotal:     122880 kB
VmallocUsed:       13024 kB
VmallocChunk:     107784 kB
HardwareCorrupted:     0 kB
AnonHugePages:         0 kB
HugePages_Total:       0
HugePages_Free:        0
HugePages_Rsvd:        0
HugePages_Surp:        0
Hugepagesize:       2048 kB
DirectMap4k:       12280 kB
DirectMap2M:      901120 kB


CPU:total 4 (2 cores per cpu, 2 threads per core) family 6 model 60 stepping 3, cmov, cx8, fxsr, mmx, sse, sse2, sse3, ssse3, sse4.1, sse4.2, popcnt, avx, avx2, aes, clmul, erms, lzcnt, ht, tsc, tscinvbit, bmi1, bmi2

/proc/cpuinfo:
processor	: 0
vendor_id	: GenuineIntel
cpu family	: 6
model		: 60
model name	: Intel(R) Core(TM) i3-4130 CPU @ 3.40GHz
stepping	: 3
microcode	: 0x9
cpu MHz		: 3400.000
cache size	: 3072 KB
physical id	: 0
siblings	: 4
core id		: 0
cpu cores	: 2
apicid		: 0
initial apicid	: 0
fdiv_bug	: no
f00f_bug	: no
coma_bug	: no
fpu		: yes
fpu_exception	: yes
cpuid level	: 13
wp		: yes
flags		: fpu vme de pse tsc msr pae mce cx8 apic sep mtrr pge mca cmov pat pse36 clflush dts acpi mmx fxsr sse sse2 ss ht tm pbe nx pdpe1gb rdtscp lm constant_tsc arch_perfmon pebs bts xtopology nonstop_tsc aperfmperf eagerfpu pni pclmulqdq dtes64 monitor ds_cpl vmx est tm2 ssse3 fma cx16 xtpr pdcm pcid sse4_1 sse4_2 movbe popcnt tsc_deadline_timer aes xsave avx f16c rdrand lahf_lm abm arat epb xsaveopt pln pts dtherm tpr_shadow vnmi flexpriority ept vpid fsgsbase tsc_adjust bmi1 avx2 smep bmi2 erms invpcid
bogomips	: 6784.66
clflush size	: 64
cache_alignment	: 64
address sizes	: 39 bits physical, 48 bits virtual
power management:

processor	: 1
vendor_id	: GenuineIntel
cpu family	: 6
model		: 60
model name	: Intel(R) Core(TM) i3-4130 CPU @ 3.40GHz
stepping	: 3
microcode	: 0x9
cpu MHz		: 1500.000
cache size	: 3072 KB
physical id	: 0
siblings	: 4
core id		: 1
cpu cores	: 2
apicid		: 2
initial apicid	: 2
fdiv_bug	: no
f00f_bug	: no
coma_bug	: no
fpu		: yes
fpu_exception	: yes
cpuid level	: 13
wp		: yes
flags		: fpu vme de pse tsc msr pae mce cx8 apic sep mtrr pge mca cmov pat pse36 clflush dts acpi mmx fxsr sse sse2 ss ht tm pbe nx pdpe1gb rdtscp lm constant_tsc arch_perfmon pebs bts xtopology nonstop_tsc aperfmperf eagerfpu pni pclmulqdq dtes64 monitor ds_cpl vmx est tm2 ssse3 fma cx16 xtpr pdcm pcid sse4_1 sse4_2 movbe popcnt tsc_deadline_timer aes xsave avx f16c rdrand lahf_lm abm arat epb xsaveopt pln pts dtherm tpr_shadow vnmi flexpriority ept vpid fsgsbase tsc_adjust bmi1 avx2 smep bmi2 erms invpcid
bogomips	: 6784.66
clflush size	: 64
cache_alignment	: 64
address sizes	: 39 bits physical, 48 bits virtual
power management:

processor	: 2
vendor_id	: GenuineIntel
cpu family	: 6
model		: 60
model name	: Intel(R) Core(TM) i3-4130 CPU @ 3.40GHz
stepping	: 3
microcode	: 0x9
cpu MHz		: 800.000
cache size	: 3072 KB
physical id	: 0
siblings	: 4
core id		: 0
cpu cores	: 2
apicid		: 1
initial apicid	: 1
fdiv_bug	: no
f00f_bug	: no
coma_bug	: no
fpu		: yes
fpu_exception	: yes
cpuid level	: 13
wp		: yes
flags		: fpu vme de pse tsc msr pae mce cx8 apic sep mtrr pge mca cmov pat pse36 clflush dts acpi mmx fxsr sse sse2 ss ht tm pbe nx pdpe1gb rdtscp lm constant_tsc arch_perfmon pebs bts xtopology nonstop_tsc aperfmperf eagerfpu pni pclmulqdq dtes64 monitor ds_cpl vmx est tm2 ssse3 fma cx16 xtpr pdcm pcid sse4_1 sse4_2 movbe popcnt tsc_deadline_timer aes xsave avx f16c rdrand lahf_lm abm arat epb xsaveopt pln pts dtherm tpr_shadow vnmi flexpriority ept vpid fsgsbase tsc_adjust bmi1 avx2 smep bmi2 erms invpcid
bogomips	: 6784.66
clflush size	: 64
cache_alignment	: 64
address sizes	: 39 bits physical, 48 bits virtual
power management:

processor	: 3
vendor_id	: GenuineIntel
cpu family	: 6
model		: 60
model name	: Intel(R) Core(TM) i3-4130 CPU @ 3.40GHz
stepping	: 3
microcode	: 0x9
cpu MHz		: 800.000
cache size	: 3072 KB
physical id	: 0
siblings	: 4
core id		: 1
cpu cores	: 2
apicid		: 3
initial apicid	: 3
fdiv_bug	: no
f00f_bug	: no
coma_bug	: no
fpu		: yes
fpu_exception	: yes
cpuid level	: 13
wp		: yes
flags		: fpu vme de pse tsc msr pae mce cx8 apic sep mtrr pge mca cmov pat pse36 clflush dts acpi mmx fxsr sse sse2 ss ht tm pbe nx pdpe1gb rdtscp lm constant_tsc arch_perfmon pebs bts xtopology nonstop_tsc aperfmperf eagerfpu pni pclmulqdq dtes64 monitor ds_cpl vmx est tm2 ssse3 fma cx16 xtpr pdcm pcid sse4_1 sse4_2 movbe popcnt tsc_deadline_timer aes xsave avx f16c rdrand lahf_lm abm arat epb xsaveopt pln pts dtherm tpr_shadow vnmi flexpriority ept vpid fsgsbase tsc_adjust bmi1 avx2 smep bmi2 erms invpcid
bogomips	: 6784.66
clflush size	: 64
cache_alignment	: 64
address sizes	: 39 bits physical, 48 bits virtual
power management:



Memory: 4k page, physical 3781856k(276552k free), swap 0k(0k free)

vm_info: Java HotSpot(TM) Server VM (25.45-b02) for linux-x86 JRE (1.8.0_45-b14), built on Apr 10 2015 10:38:30 by "java_re" with gcc 4.3.0 20080428 (Red Hat 4.3.0-8)

time: Wed Apr  6 16:58:33 2016
elapsed time: 17 seconds (0d 0h 0m 17s)

